{
    "libz.tbd": 5,
    "WebKit.framework": 1,
    "ImageIO.framework": 1,
    "CoreLocation.framework": 1,
    "AVFoundation.framework": 1,
    "SystemConfiguration.framework": 2,
    "CoreTelephony.framework": 1,
    "AddressBook.framework": 3,
    "CoreText.framework": 2,
    "SafariServices.framework": 1,
    "Security.framework": 3,
    "libz.dylib": 1,
    "QuartzCore.framework": 1,
    "Accounts.framework": 1,
    "Social.framework": 1,
    "CoreData.framework": 1,
    "libc++.tbd": 1,
    "libsqlite3.0.tbd": 1
}