{
  "prepare_queue": {
    "installed": [],
    "uninstalled": []
  },
  "config_munge": {
    "files": {}
  },
  "installed_plugins": {
    "com-sarriaroman-photoviewer": {
      "PACKAGE_NAME": "com.paulcham.apps.fire.line"
    },
    "cordova-plugin-camera": {
      "PACKAGE_NAME": "com.paulcham.apps.fire.line"
    },
    "cordova-plugin-device": {
      "PACKAGE_NAME": "com.paulcham.apps.fire.line"
    },
    "cordova-plugin-facebook4": {
      "APP_ID": "161693587881533",
      "APP_NAME": "Fireline",
      "PACKAGE_NAME": "com.paulcham.apps.fire.line"
    },
    "cordova-plugin-fcm": {
      "PACKAGE_NAME": "com.paulcham.apps.fire.line"
    },
    "cordova-plugin-file": {
      "PACKAGE_NAME": "com.paulcham.apps.fire.line"
    },
    "cordova-plugin-file-transfer": {
      "PACKAGE_NAME": "com.paulcham.apps.fire.line"
    }
  },
  "dependent_plugins": {}
}